level3,lifeform_veg_cat_l4a,canopyco_veg_cat_l4d_lw,LCCS_Code,LCCS_Description,Red,Green,Blue,Alpha
111,2,,A11,Herbaceous   ,209,224,51,255
112,2,,A12,Herbaceous   ,153,194,31,255
112,1,,A12,Woody   ,26,130,50,255
112,,10,A12,Cover (> 80 %),26,100,50,255
112,,12,A12,Cover (60 to 80 %),26,120,50,255
112,,13,A12,Cover (40 to 60 %),26,140,50,255
112,,15,A12,Cover (20 to 40 %),26,150,50,255
112,,16,A12,Cover (1 to 20 %),26,160,50,255
112,1,10,A12,Woody Cover (> 80 %),26,100,50,255
112,1,12,A12,Woody Cover (60 to 80 %),26,120,50,255
112,1,13,A12,Woody Cover (40 to 60 %),26,140,50,255
112,1,15,A12,Woody Cover (20 to 40 %),26,150,50,255
112,1,16,A12,Woody Cover (1 to 20 %),26,160,50,255
123,2,,A23,Herbaceous   ,82,231,172,255
124,2,,A24,Herbaceous   ,39,204,139,255
124,1,,A24,Woody   ,26,150,110,255
124,,10,A24,Cover (> 80 %),26,160,110,255
124,,12,A24,Cover (60 to 80 %),26,140,110,255
124,,13,A24,Cover (40 to 60 %),26,120,110,255
124,,15,A24,Cover (20 to 40 %),26,110,110,255
124,,16,A24,Cover (1 to 20 %),26,100,110,255
124,1,10,A24,Woody Cover (> 80 %),26,160,110,255
124,1,12,A24,Woody Cover (60 to 80 %),26,140,110,255
124,1,13,A24,Woody Cover (40 to 60 %),26,120,110,255
124,1,15,A24,Woody Cover (20 to 40 %),26,110,110,255
124,1,16,A24,Woody Cover (1 to 20 %),26,100,110,255
215,,,B15,   ,218,92,105,255
216,,,B16,   ,243,171,105,255
227,,,B27,   ,153,215,251,255
228,,,B28,   ,56,135,184,255
220,,,B20,Water,77,159,220,255