pixel_ID,level3,lifeform_veg_cat_l4a,canopyco_veg_cat_l4d,waterstt_wat_cat_l4a,watersea_veg_cat_l4a,inttidal_wat_cat_l4a,waterper_wat_cat_l4d,LCCS_Code,LCCS_Description,Red,Green,Blue,Alpha
1,111,,,,,,,A11,Cultivated Terrestrial Vegetated,170,234,54,255
2,111,1,,,,,,A11.A1,Cultivated Terrestrial Vegetated Woody,151,187,26,255
3,111,1,10,,,,,A11.A1.A10,Cultivated Terrestrial Vegetated Woody closed (> 65 %),152,201,48,255
4,111,1,12,,,,,A11.A1.A12,Cultivated Terrestrial Vegetated Woody open (40 to 60 %),174,214,81,255
5,111,1,13,,,,,A11.A1.A13,Cultivated Terrestrial Vegetated Woody open (15-40 %),196,227,120,255
6,111,1,15,,,,,A11.A1.A15,Cultivated Terrestrial Vegetated Woody sparse (4-15 %),217,241,160,255
7,111,1,16,,,,,A11.A1.A16,Cultivated Terrestrial Vegetated Woody sparse (1-4 %),239,254,201,255
8,111,,10,,,,,A11.A10,Cultivated Terrestrial Vegetated closed (> 65 %),122,213,40,255
9,111,,12,,,,,A11.A12,Cultivated Terrestrial Vegetated open (40 to 60 %),151,223,69,255
10,111,,13,,,,,A11.A13,Cultivated Terrestrial Vegetated open (< 20 %),180,233,115,255
11,111,,15,,,,,A11.A15,Cultivated Terrestrial Vegetated sparse  (4-15 %),210,244,166,255
12,111,,16,,,,,A11.A16,Cultivated Terrestrial Vegetated sparse  (1-4 %),238,254,217,255
13,111,2,,,,,,A11.A2,Cultivated Terrestrial Vegetated Herbaceous,209,224,51,255
14,111,2,10,,,,,A11.A2.A10,Cultivated Terrestrial Vegetated Herbaceous closed (> 65 %),228,224,52,255
15,111,2,12,,,,,A11.A2.A12,Cultivated Terrestrial Vegetated Herbaceous open (40 to 60 %),235,232,84,255
16,111,2,13,,,,,A11.A2.A13,Cultivated Terrestrial Vegetated Herbaceous open (15-40 %),242,240,127,255
17,111,2,15,,,,,A11.A2.A15,Cultivated Terrestrial Vegetated Herbaceous  sparse (4-15 %),249,247,174,255
18,111,2,16,,,,,A11.A2.A16,Cultivated Terrestrial Vegetated Herbaceous sparse  (1-4 %),255,254,222,255
19,112,,,,,,,A12,Natural Terrestrial Vegetated,14,121,18,255
20,112,1,,,,,,A12.A1,Natural Terrestrial Vegetated Woody,26,177,87,255
21,112,1,10,,,,,A12.A1.A10,Natural Terrestrial Vegetated Woody closed (> 65 %),18,140,69,255
22,112,1,12,,,,,A12.A1.A12,Natural Terrestrial Vegetated Woody open (40 to 60 %),46,155,96,255
23,112,1,13,,,,,A12.A1.A13,Natural Terrestrial Vegetated Woody sparse (15-40 %),81,170,122,255
24,112,1,15,,,,,A12.A1.A15,Natural Terrestrial Vegetated Woody  sparse (4-15 %),117,185,149,255
25,112,1,16,,,,,A12.A1.A16,Natural Terrestrial Vegetated Woody sparse (1-4 %),154,199,176,255
26,112,,10,,,,,A12.A10,Natural Terrestrial Vegetated closed (> 65 %),14,121,18,255
27,112,,12,,,,,A12.A12,Natural Terrestrial Vegetated open (40 to 60 %),45,141,47,255
28,112,,13,,,,,A12.A13,Natural Terrestrial Vegetated open (15-40 %),80,160,82,255
29,112,,15,,,,,A12.A15,Natural Terrestrial Vegetated sparse  (4-15 %),117,180,118,255
30,112,,16,,,,,A12.A16,Natural Terrestrial Vegetated  sparse (1-4 %),154,199,156,255
31,112,2,,,,,,A12.A2,Natural Terrestrial Vegetated Herbaceous,94,179,31,255
32,112,2,10,,,,,A12.A2.A10,Natural Terrestrial Vegetated Herbaceous closed (> 65 %),119,167,30,255
33,112,2,12,,,,,A12.A2.A12,Natural Terrestrial Vegetated Herbaceous open (40 to 60 %),136,182,51,255
34,112,2,13,,,,,A12.A2.A13,Natural Terrestrial Vegetated Herbaceous open (15-40 %),153,196,80,255
35,112,2,15,,,,,A12.A2.A15,Natural Terrestrial Vegetated Herbaceous  sparse (4-15 %),170,212,113,255
36,112,2,16,,,,,A12.A2.A16,Natural Terrestrial Vegetated Herbaceous  sparse(1-4 %),186,226,146,255
37,123,,,,,,,A23,Cultivated Aquatic Vegetated,86,236,231,255
38,123,1,,,,,,A23.A1,Cultivated Aquatic Vegetated Woody,61,170,140,255
39,123,1,10,,,,,A23.A1.A10,Cultivated Aquatic Vegetated Woody closed (> 65 %),21,148,111,255
40,123,1,12,,,,,A23.A1.A12,Cultivated Aquatic Vegetated Woody open (40 to 60 %),48,169,136,255
41,123,1,13,,,,,A23.A1.A13,Cultivated Aquatic Vegetated Woody open (15-40 %),83,189,161,255
42,123,1,15,,,,,A23.A1.A15,Cultivated Aquatic Vegetated Woody  sparse (4-15 %),121,210,186,255
43,123,1,16,,,,,A23.A1.A16,Cultivated Aquatic Vegetated Woody  sparse (1-4 %),158,230,211,255
44,123,,10,,,,,A23.A10,Cultivated Aquatic Vegetated closed (> 65 %),43,210,203,255
45,123,,12,,,,,A23.A12,Cultivated Aquatic Vegetated open (40 to 60 %),73,222,216,255
46,123,,13,,,,,A23.A13,Cultivated Aquatic Vegetated open (15-40 %),110,233,228,255
47,123,,15,,,,,A23.A15,Cultivated Aquatic Vegetated  sparse (4-15 %),149,244,240,255
48,123,,16,,,,,A23.A16,Cultivated Aquatic Vegetated sparse  (1-4 %),187,255,252,255
49,123,2,,,,,,A23.A2,Cultivated Aquatic Vegetated Herbaceous,82,231,172,255
50,123,2,10,,,,,A23.A2.A10,Cultivated Aquatic Vegetated Herbaceous closed (> 65 %),82,231,196,255
51,123,2,12,,,,,A23.A2.A12,Cultivated Aquatic Vegetated Herbaceous open (40 to 60 %),113,237,208,255
52,123,2,13,,,,,A23.A2.A13,Cultivated Aquatic Vegetated Herbaceous open (< 20 %),144,243,220,255
53,123,2,15,,,,,A23.A2.A15,Cultivated Aquatic Vegetated Herbaceous sparse  (4-15 %),175,249,232,255
54,123,2,16,,,,,A23.A2.A16,Cultivated Aquatic Vegetated Herbaceous  sparse (1-4 %),207,255,244,255
55,124,,,,,,,A24,Natural Aquatic Vegetated,30,191,121,255
56,124,1,,,,,,A24.A1,Natural Aquatic Vegetated Woody,18,142,148,255
57,124,1,10,,,,,A24.A1.A10,Natural Aquatic Vegetated Woody closed (> 65 %),18,134,112,255
58,124,1,10,,1,,,A24.A1.A10.C1,Natural Aquatic Vegetated Woody closed (> 65 %) Water > 3 months (semi-)permenant,24,162,126,255
59,124,1,10,,2,,,A24.A1.A10.C2,Natural Aquatic Vegetated Woody closed (> 65 %) Water < 3 months (temporary or seasonal),34,186,164,255
60,124,1,12,,,,,A24.A1.A12,Natural Aquatic Vegetated Woody open (40 to 60 %),46,152,133,255
61,124,1,12,,1,,,A24.A1.A12.C1,Natural Aquatic Vegetated Woody open (40 to 60 %) Water > 3 months (semi-)permenant,70,179,133,255
62,124,1,12,,2,,,A24.A1.A12.C2,Natural Aquatic Vegetated Woody open (40 to 60 %) Water < 3 months (temporary or seasonal),81,200,174,255
63,124,1,13,,,,,A24.A1.A13,Natural Aquatic Vegetated Woody open (15-40 %),80,169,154,225
64,124,1,13,,1,,,A24.A1.A13.C1,Natural Aquatic Vegetated Woody open (15-40 %) Water > 3 months (semi-)permenant,130,196,141,255
65,124,1,13,,2,,,A24.A1.A13.C2,Natural Aquatic Vegetated Woody open (15-40 %) Water < 3 months (temporary or seasonal),137,214,185,255
66,124,1,15,,,,,A24.A1.A15,Natural Aquatic Vegetated Woody sparse (4-15 %) ,117,187,175,255
67,124,1,15,,1,,,A24.A1.A15.C1,Natural Aquatic Vegetated Woody sparse (4-15 %) Water > 3 months (semi-)permenant,192,213,149,255
68,124,1,15,,2,,,A24.A1.A15.C2,Natural Aquatic Vegetated Woody sparse (4-15 %) Water < 3 months (semi-)permenant,196,228,195,255
69,124,1,16,,,,,A24.A1.A16,Natural Aquatic Vegetated Woody sparse (1-4 %) ,153,204,195,255
70,124,1,16,,1,,,A24.A1.A16.C1,Natural Aquatic Vegetated Woody sparse (1-4 %) Water > 3 months (semi-)permenant,254,229,157,255
71,124,1,16,,2,,,A24.A1.A16.C2,Natural Aquatic Vegetated Woody sparse (1-4 %) Water < 3 months (semi-)permenant,255,241,206,255
72,124,1,,,1,,,A24.A1.C1,Natural Aquatic Vegetated Woody Water > 3 months (semi-)permenant,27,178,118,255
73,124,,13,,1,,,A24.A1.C1,Natural Aquatic Vegetated open (15-40 %)Water > 3 months (semi-)permenant,134,197,187,255
74,124,1,,,2,,,A24.A1.C2,Natural Aquatic Vegetated Woody Water < 3 months (temporary or seasonal),196,191,123,255
75,124,,10,,,,,A24.A10,Natural Aquatic Vegetated closed (> 65 %),25,173,109,255
76,124,,10,,1,,,A24.A10.C1,Natural Aquatic Vegetated closed (> 65 %) Water > 3 months (semi-)permenant,170,207,151,255
77,124,,10,,2,,,A24.A10.C2,Natural Aquatic Vegetated closed (> 65 %) Water < 3 months (temporary or seasonal),111,229,178,255
78,124,,12,,,,,A24.A12,Natural Aquatic Vegetated open (40 to 60 %),53,184,132,255
79,124,,12,,1,,,A24.A12.C1,Natural Aquatic Vegetated open (40 to 60 %) Water > 3 months (semi-)permenant,152,201,169,255
80,124,,12,,2,,,A24.A12.C2,Natural Aquatic Vegetated open (40 to 60 %) Water < 3 months (temporary or seasonal),124,228,197,255
81,124,,13,,,,,A24.A13,Natural Aquatic Vegetated open (15-40 %),93,195,155,255
82,124,,13,,2,,,A24.A13.C2,Natural Aquatic Vegetated open (15-40 %) Water < 3 months (temporary or seasonal),138,228,216,255
83,124,,15,,,,,A24.A15,Natural Aquatic Vegetated sparse (4-15 %),135,206,178,255
84,124,,15,,1,,,A24.A15.C1,Natural Aquatic Vegetated sparse (4-15 %)  Water > 3 months (semi-)permenant,116,192,205,255
85,124,,15,,2,,,A24.A15.C2,Natural Aquatic Vegetated sparse (4-15 %)  Water < 3 months (semi-)permenant,151,228,235,255
86,124,,16,,,,,A24.A16,Natural Aquatic Vegetated sparse (1-4 %),176,218,201,255
87,124,,16,,1,,,A24.A16.C1,Natural Aquatic Vegetated sparse (1-4 %)  Water > 3 months (semi-)permenant,99,187,223,255
88,124,,16,,2,,,A24.A16.C2,Natural Aquatic Vegetated sparse (1-4 %)  Water < 3 months (semi-)permenant,164,228,254,255
89,124,2,,,,,,A24.A2,Natural Aquatic Vegetated Herbaceous,112,234,134,255
90,124,2,10,,,,,A24.A2.A10,Natural Aquatic Vegetated Herbaceous closed (> 65 %),39,204,139,255
91,124,2,10,,1,,,A24.A2.A10.C1,Natural Aquatic Vegetated Herbaceous closed (> 65 %) Water > 3 months (semi-)permenant,89,204,135,255
92,124,2,10,,2,,,A24.A2.A10.C2,Natural Aquatic Vegetated Herbaceous closed (> 65 %) Water < 3 months (temporary or seasonal),76,237,178,255
93,124,2,12,,,,,A24.A2.A12,Natural Aquatic Vegetated Herbaceous open (40 to 60 %),66,216,159,255
94,124,2,12,,1,,,A24.A2.A12.C1,Natural Aquatic Vegetated Herbaceous open (40 to 60 %) Water > 3 months (semi-)permenant,128,203,145,255
95,124,2,12,,2,,,A24.A2.A12.C2,Natural Aquatic Vegetated Herbaceous open (40 to 60 %) Water < 3 months (temporary or seasonal),118,234,178,255
96,124,2,13,,,,,A24.A2.A13,Natural Aquatic Vegetated Herbaceous sparse (15-40 %),99,227,180,255
97,124,2,13,,1,,,A24.A2.A13.C1,Natural Aquatic Vegetated Herbaceous sparse (15-40 %) Water > 3 months (semi-)permenant,167,203,155,255
98,124,2,13,,2,,,A24.A2.A13.C2,Natural Aquatic Vegetated Herbaceous sparse (15-40 %) Water < 3 months (temporary or seasonal),162,232,179,255
99,124,2,15,,,,,A24.A2.A15,Natural Aquatic Vegetated Herbaceous sparse (4-15 %),135,239,201,255
100,124,2,15,,1,,,A24.A2.A15.C1,Natural Aquatic Vegetated Herbaceous sparse (4-15 %) Water > 3 months (semi-)permenant,207,202,165,255
101,124,2,15,,2,,,A24.A2.A15.C2,Natural Aquatic Vegetated Herbaceous sparse (4-15 %) Water < 3 months (temporary or seasonal),208,230,179,255
102,124,2,16,,,,,A24.A2.A16,Natural Aquatic Vegetated Herbaceous sparse (1-4 %),171,250,221,255
103,124,2,16,,1,,,A24.A2.A16.C1,Natural Aquatic Vegetated Herbaceous sparse (1-4 %) Water > 3 months (semi-)permenant,247,203,175,255
104,124,2,16,,2,,,A24.A2.A16.C2,Natural Aquatic Vegetated Herbaceous sparse (1-4 %) Water < 3 months (temporary or seasonal),254,228,180,255
105,124,2,,,1,,,A24.A2.C1,Natural Aquatic Vegetated Herbaceous Water > 3 months (semi-)permenant,68,185,177,255
106,124,2,,,2,,,A24.A2.C2,Natural Aquatic Vegetated Herbaceous Water < 3 months (temporary or seasonal),193,211,70,255
107,124,,,,1,,,A24.C1,Natural Aquatic Vegetated Water > 3 months (semi-)permenant,56,209,207,255
108,124,,,,2,,,A24.C2,Natural Aquatic Vegetated Water < 3 months (temporary or seasonal),31,191,153,255
109,215,,,,,,,B15,Artificial Surface,218,92,105,255
110,216,,,,,,,B16,Natural Surface,243,171,105,255
111,220,,,1,,,,B20,Water,151,214,253,255
112,220,,,1,,,1,B20.A1.B1,Water (Water) Perennial (> 9 months),56,135,184,255
113,220,,,1,,3,,B20.A1.B3,Water (Water) Tidal area,187,220,233,255
114,220,,,1,,,5,B20.A1.B5,Water (Water),151,214,253,255
115,220,,,1,,,7,B20.A1.B7,Water (Water) Non-perennial (7 to 9 months),92,162,204,255
116,220,,,1,,,8,B20.A1.B8,Water (Water) Non-perennial (4 to 6 months),130,190,226,255
117,220,,,1,,,9,B20.A1.B9,Water (Water) Non-perennial (1 to 3 months),171,221,251,255
118,220,,,2,,,,B20.A2,Water (Snow),250,250,250,255
